# Blender v2.79 (sub 0) OBJ File: 'LEVELONE.blend'
# www.blender.org
mtllib level1.mtl
o Plane
v -15.013619 2.275099 10.385524
v 15.013619 2.275099 10.385524
v -15.013619 2.275099 -10.385524
v 15.013619 0.551435 -10.385524
v -6.687701 0.551435 10.385524
v 2.750220 0.551435 10.385524
v 15.013619 0.551435 -7.463529
v 3.066321 0.551435 2.425963
v 4.827463 0.551435 -0.148014
v 10.607627 0.551435 -1.909156
v 13.226763 0.551435 -7.057114
v 4.285573 0.551435 -4.483133
v 0.131082 0.551435 -2.089787
v -10.887351 0.551435 -2.405889
v -13.009754 0.551435 1.071238
v -11.700187 0.551435 7.393290
v -46.249889 2.450957 30.701860
v 33.595150 4.458585 22.233419
v -45.959473 6.884246 -28.532721
v 40.517918 1.199505 -19.940416
v -13.460109 8.146811 30.980476
v 9.935057 1.344388 25.905146
v 39.909435 1.199505 -16.290417
v -79.338142 -3.248891 46.945839
v 44.588665 3.232540 19.606323
v -78.400558 11.063546 -51.701191
v 59.993973 -0.492674 -28.348667
v -10.591969 6.226918 47.845329
v 22.867924 2.091353 31.460127
v 71.917931 -0.492674 -20.815914
v 15.013619 3.475001 10.385524
v -15.013619 3.475001 -10.385524
v 15.013619 1.751338 -10.385524
v 15.013619 1.751338 -7.463529
v 33.595150 5.658488 22.233419
v -45.959473 8.084149 -28.532721
v 40.517918 2.399407 -19.940416
v 39.909435 2.399407 -16.290417
vt 0.0000 0.0000
vt 1.0000 0.0000
vt 1.0000 1.0000
vt 0.0000 0.0000
vt 1.0000 0.0000
vt 1.0000 1.0000
vt 0.0325 0.3227
vt 0.0036 0.5603
vt 0.9964 0.5603
vt 0.0000 0.0000
vt 1.0000 0.0000
vt 1.0000 1.0000
vt 1.0000 0.0000
vt 1.0000 1.0000
vt 0.0000 0.0000
vt 1.0000 0.0000
vt 1.0000 1.0000
vt 0.0000 0.0000
vt 1.0000 0.0000
vt 0.0000 0.0000
vt 1.0000 0.0000
vt 0.0000 0.0000
vt 1.0000 0.0000
vt 0.0000 0.0000
vt 1.0000 0.0000
vt 0.0000 0.0000
vt 1.0000 0.0000
vt 1.0000 1.0000
vt 1.0000 0.0000
vt 1.0000 1.0000
vt 0.0000 0.0000
vt 1.0000 0.0000
vt 0.0000 1.0000
vt 0.0000 0.0000
vt 1.0000 1.0000
vt 0.0000 1.0000
vt 0.0000 1.0000
vt 0.0000 0.0000
vt 1.0000 1.0000
vt 0.0000 1.0000
vt 1.0000 1.0000
vt 0.0000 1.0000
vt 0.0000 0.0000
vt 1.0000 1.0000
vt 0.0000 1.0000
vt 0.0000 0.0000
vt 1.0000 1.0000
vt 0.0000 1.0000
vt 0.0000 0.0000
vt 1.0000 1.0000
vt 0.0000 1.0000
vt 0.0000 0.0000
vt 1.0000 1.0000
vt 0.0000 1.0000
vt 1.0000 0.0000
vt 0.0000 1.0000
vt 0.0000 0.0000
vt 1.0000 0.0000
vt 0.0000 1.0000
vt 0.0000 0.0000
vt 1.0000 0.0000
vt 0.0000 1.0000
vt 0.0000 0.0000
vt 0.2676 0.9427
vt 0.5000 1.0000
vt 0.7324 0.9427
vt 0.9115 0.7840
vt 0.0885 0.7840
vt 0.9675 0.3227
vt 0.3803 0.0145
vt 0.8316 0.1257
vt 0.6197 0.0145
vt 0.1684 0.1257
vt 1.0000 1.0000
vt 1.0000 1.0000
vt 1.0000 0.0000
vt 1.0000 0.0000
vt 1.0000 0.0000
vt 1.0000 0.0000
vt 1.0000 1.0000
vt 1.0000 1.0000
vt 1.0000 1.0000
vt 0.0000 0.0000
vt 0.0000 0.0000
vt 0.0000 0.0000
vt 0.0000 0.0000
vt 0.0000 0.0000
vt 0.0000 0.0000
vt 0.0000 0.0000
vt 0.0000 0.0000
vt 0.0000 0.0000
vn 0.3465 0.9380 0.0079
vn 0.0613 0.9920 0.1099
vn -0.0402 0.7602 0.6484
vn 0.1407 0.9795 -0.1440
vn 0.0952 0.9852 -0.1423
vn 0.1942 0.9728 -0.1259
vn -0.0345 0.9992 -0.0213
vn 0.0000 1.0000 0.0000
vn 0.0190 0.9985 0.0504
vn -0.0555 0.9968 -0.0580
vn -0.5712 0.7891 0.2258
vn 0.1122 0.7528 0.6485
vn 0.0288 0.9982 0.0518
vn -0.4140 0.8596 -0.2994
vn -0.0592 0.9981 -0.0151
vn 0.0211 0.9961 -0.0855
vn 0.2191 0.8301 0.5126
vn 0.0364 0.9968 -0.0712
vn 0.1952 0.9469 -0.2553
vn 0.1800 0.9836 -0.0137
vn -0.0747 0.9951 0.0649
vn -0.1119 0.9927 0.0445
vn 0.0233 0.9981 0.0573
vn -0.0491 0.9968 0.0632
vn 0.0510 0.9974 -0.0508
vn 0.0390 0.9915 0.1242
vn 0.0951 0.9954 -0.0071
vn 0.0435 0.9969 -0.0649
vn -0.0942 0.9915 0.0901
vn -0.8256 0.0000 -0.5642
vn -0.8600 0.0000 0.5103
vn -0.2771 0.0000 0.9608
vn -0.9167 0.0000 -0.3996
vn 0.9691 0.0000 -0.2468
vn 0.6840 0.0000 -0.7295
vn 0.1764 0.0000 0.9843
vn 0.4153 0.0000 0.9097
usemtl None
s 1
f 15/1/1 14/2/2 3/3/3
f 1/4/4 5/5/5 16/6/6
f 8/7/7 9/8/8 13/9/9
f 10/10/10 8/11/7 2/12/11
f 1/4/4 16/13/6 15/14/1
f 11/15/8 4/16/12 12/17/13
f 4/18/12 3/19/3 12/17/13
f 14/20/2 13/21/9 3/3/3
f 13/22/9 12/23/13 3/3/3
f 3/24/3 1/25/4 15/14/1
f 2/26/11 7/27/14 10/28/10
f 10/10/10 9/29/8 8/30/7
f 8/31/7 6/32/15 2/12/11
f 5/5/5 22/33/16 6/34/15
f 2/26/11 22/35/16 18/36/17
f 1/25/4 21/37/18 5/38/5
f 4/18/12 23/39/19 20/40/20
f 1/4/4 19/41/21 17/42/22
f 22/43/16 28/44/23 29/45/24
f 19/46/21 27/47/25 26/48/26
f 18/49/17 29/50/24 25/51/27
f 23/52/19 25/53/27 30/54/28
f 17/55/22 28/56/23 21/57/18
f 23/58/19 27/59/25 20/60/20
f 19/61/21 24/62/29 17/63/22
f 7/64/14 4/65/12 11/66/8
f 11/66/8 12/67/13 10/68/10
f 12/67/13 13/9/9 9/8/8
f 13/9/9 14/69/2 5/70/5
f 14/69/2 15/71/1 16/72/6
f 5/70/5 14/69/2 16/72/6
f 5/70/5 6/73/15 8/7/7
f 9/8/8 10/68/10 12/67/13
f 10/68/10 7/64/14 11/66/8
f 5/70/5 8/7/7 13/9/9
f 5/5/5 21/74/18 22/33/16
f 2/26/11 6/32/15 22/35/16
f 1/25/4 17/75/22 21/37/18
f 4/18/12 7/27/14 23/39/19
f 1/4/4 3/19/3 19/41/21
f 22/43/16 21/76/18 28/44/23
f 19/46/21 20/77/20 27/47/25
f 18/49/17 22/78/16 29/50/24
f 23/52/19 18/79/17 25/53/27
f 17/55/22 24/80/29 28/56/23
f 23/58/19 30/81/28 27/59/25
f 19/61/21 26/82/26 24/62/29
usemtl None_NONE
f 2/26/11 34/83/30 7/84/14
f 18/49/17 31/85/31 2/26/11
f 19/46/21 32/86/32 36/87/33
f 19/46/21 37/88/34 20/60/20
f 23/52/19 34/83/30 38/89/35
f 20/60/20 33/90/36 4/18/12
f 3/24/3 33/90/36 32/86/32
f 18/49/17 38/89/35 35/91/37
f 2/26/11 31/85/31 34/83/30
f 18/49/17 35/91/37 31/85/31
f 19/46/21 3/24/3 32/86/32
f 19/46/21 36/87/33 37/88/34
f 23/52/19 7/84/14 34/83/30
f 20/60/20 37/88/34 33/90/36
f 3/24/3 4/18/12 33/90/36
f 18/49/17 23/52/19 38/89/35
